{"response":{"status":"ok","userTier":"developer","total":52777,"startIndex":1,"pageSize":10,"currentPage":1,"pages":5278,"orderBy":"relevance","results":[{"id":"sport/2021/aug/06/a-hundred-reasons-why-its-just-not-cricket","type":"article","sectionId":"sport","sectionName":"Sport","webPublicationDate":"2021-08-06T15:59:28Z","webTitle":"A hundred reasons why it’s just not cricket | Letters","webUrl":"https://www.theguardian.com/sport/2021/aug/06/a-hundred-reasons-why-its-just-not-cricket","apiUrl":"https://content.guardianapis.com/sport/2021/aug/06/a-hundred-reasons-why-its-just-not-cricket","isHosted":false,"pillarId":"pillar/sport","pillarName":"Sport"},{"id":"sport/2021/may/30/still-game-for-county-cricket-at-any-age","type":"article","sectionId":"sport","sectionName":"Sport","webPublicationDate":"2021-05-30T15:44:52Z","webTitle":"Still game for county cricket at any age | Letters","webUrl":"https://www.theguardian.com/sport/2021/may/30/still-game-for-county-cricket-at-any-age","apiUrl":"https://content.guardianapis.com/sport/2021/may/30/still-game-for-county-cricket-at-any-age","isHosted":false,"pillarId":"pillar/sport","pillarName":"Sport"},{"id":"sport/2021/jul/31/cricket-australia-walks-political-tightrope-amid-englands-ashes-boycott-threat","type":"article","sectionId":"sport","sectionName":"Sport","webPublicationDate":"2021-07-31T06:16:45Z","webTitle":"Cricket Australia walks Ashes tightrope amid England concerns over Covid regulations | Geoff Lemon","webUrl":"https://www.theguardian.com/sport/2021/jul/31/cricket-australia-walks-political-tightrope-amid-englands-ashes-boycott-threat","apiUrl":"https://content.guardianapis.com/sport/2021/jul/31/cricket-australia-walks-political-tightrope-amid-englands-ashes-boycott-threat","isHosted":false,"pillarId":"pillar/sport","pillarName":"Sport"},{"id":"sport/2021/jul/30/england-and-wales-cricket-board-and-cricket-australia-set-for-key-talks-over-families-making-trip-to-ashes","type":"article","sectionId":"sport","sectionName":"Sport","webPublicationDate":"2021-07-30T20:46:50Z","webTitle":"Ben Stokes takes indefinite break from cricket to ‘prioritise mental wellbeing’","webUrl":"https://www.theguardian.com/sport/2021/jul/30/england-and-wales-cricket-board-and-cricket-australia-set-for-key-talks-over-families-making-trip-to-ashes","apiUrl":"https://content.guardianapis.com/sport/2021/jul/30/england-and-wales-cricket-board-and-cricket-australia-set-for-key-talks-over-families-making-trip-to-ashes","isHosted":false,"pillarId":"pillar/sport","pillarName":"Sport"},{"id":"world/2021/may/23/howzat-football-mad-barcelona-votes-to-build-cricket-oval","type":"article","sectionId":"world","sectionName":"World news","webPublicationDate":"2021-05-23T09:00:25Z","webTitle":"Football-mad Barcelona votes to build cricket oval","webUrl":"https://www.theguardian.com/world/2021/may/23/howzat-football-mad-barcelona-votes-to-build-cricket-oval","apiUrl":"https://content.guardianapis.com/world/2021/may/23/howzat-football-mad-barcelona-votes-to-build-cricket-oval","isHosted":false,"pillarId":"pillar/news","pillarName":"News"},{"id":"sport/live/2021/jul/04/county-cricket-lancashire-v-kent-warwickshire-v-durham-and-more-live","type":"liveblog","sectionId":"sport","sectionName":"Sport","webPublicationDate":"2021-07-04T19:21:17Z","webTitle":"County cricket: Devon Conway shines for Somerset – as it happened","webUrl":"https://www.theguardian.com/sport/live/2021/jul/04/county-cricket-lancashire-v-kent-warwickshire-v-durham-and-more-live","apiUrl":"https://content.guardianapis.com/sport/live/2021/jul/04/county-cricket-lancashire-v-kent-warwickshire-v-durham-and-more-live","isHosted":false,"pillarId":"pillar/sport","pillarName":"Sport"},{"id":"sport/2021/jul/27/cricket-spin-the-loneliness-of-the-long-distance-run-of-poor-form","type":"article","sectionId":"sport","sectionName":"Sport","webPublicationDate":"2021-07-27T09:37:47Z","webTitle":"The Spin | The loneliness of the long-distance run of poor cricket form","webUrl":"https://www.theguardian.com/sport/2021/jul/27/cricket-spin-the-loneliness-of-the-long-distance-run-of-poor-form","apiUrl":"https://content.guardianapis.com/sport/2021/jul/27/cricket-spin-the-loneliness-of-the-long-distance-run-of-poor-form","isHosted":false,"pillarId":"pillar/sport","pillarName":"Sport"},{"id":"sport/2021/jul/19/cricket-writers-unite-salute-finest-of-all-john-woodcock","type":"article","sectionId":"sport","sectionName":"Sport","webPublicationDate":"2021-07-19T16:47:32Z","webTitle":" Cricket writers unite to salute ‘the finest of all’, John Woodcock | Tim de Lisle","webUrl":"https://www.theguardian.com/sport/2021/jul/19/cricket-writers-unite-salute-finest-of-all-john-woodcock","apiUrl":"https://content.guardianapis.com/sport/2021/jul/19/cricket-writers-unite-salute-finest-of-all-john-woodcock","isHosted":false,"pillarId":"pillar/sport","pillarName":"Sport"},{"id":"sport/live/2021/jul/13/county-cricket-yorkshire-v-lancashire-surrey-v-somerset-and-more-live","type":"liveblog","sectionId":"sport","sectionName":"Sport","webPublicationDate":"2021-07-13T20:47:42Z","webTitle":"Yorkshire’s Dom Leech sustains horror injury: county cricket – as it happened","webUrl":"https://www.theguardian.com/sport/live/2021/jul/13/county-cricket-yorkshire-v-lancashire-surrey-v-somerset-and-more-live","apiUrl":"https://content.guardianapis.com/sport/live/2021/jul/13/county-cricket-yorkshire-v-lancashire-surrey-v-somerset-and-more-live","isHosted":false,"pillarId":"pillar/sport","pillarName":"Sport"},{"id":"theobserver/commentisfree/2021/aug/01/may-i-have-a-word-about-nailing-things-on-and-simplifying-cricket","type":"article","sectionId":"theobserver","sectionName":"From the Observer","webPublicationDate":"2021-08-01T09:00:02Z","webTitle":"May I have a word about nailing things on and simplifying cricket | Jonathan Bouquet","webUrl":"https://www.theguardian.com/theobserver/commentisfree/2021/aug/01/may-i-have-a-word-about-nailing-things-on-and-simplifying-cricket","apiUrl":"https://content.guardianapis.com/theobserver/commentisfree/2021/aug/01/may-i-have-a-word-about-nailing-things-on-and-simplifying-cricket","isHosted":false,"pillarId":"pillar/news","pillarName":"News"}]}}
